Системы автоматизированного проектирования/Лабораторная №2/Altera project/sapr2.vcd
$comment
Copyright (C) 1991-2010 Altera Corporation
Your use of Altera Corporation's design tools, logic functions 
and other software and tools, and its AMPP partner logic 
functions, and any output files from any of the foregoing 
(including device programming or simulation files), and any 
associated documentation or information are expressly subject 
to the terms and conditions of the Altera Program License 
Subscription Agreement, Altera MegaCore Function License 
Agreement, or other applicable license agreement, including, 
without limitation, that your use is for the sole purpose of 
programming logic devices manufactured by Altera and sold by 
Altera or its authorized distributors.  Please refer to the 
applicable agreement for further details.
$end

$date 
  03/31/2023 20:59:42 
$end
$version 
 QUARTUS_VCD_EXPORT 1.0 
$end
$timescale
  1 ps
$end
$scope module sapr2 $end
$var reg 1 ! clk $end
$var reg 2 " action[1:0] $end
$var reg 1 # LED_BLUE $end
$var reg 1 $ LED_GREEN $end
$var reg 1 % LED_RED $end
$var reg 8 & x[7:0] $end
$upscope $end
$enddefinitions $end
#0
$dumpvars
0!
b0 "
0#
0$
0%
b100000 &
$end
#5000
1!
1#
#10000
0!
0#
b0 &
#15000
1!
1#
#20000
0!
b1 "
0#
#25000
1!
1#
#30000
0!
b0 "
0#
b100 &
#35000
1!
1#
#40000
0!
0#
b0 &
#45000
1!
1#
#50000
0!
0#
b10 &
#55000
1!
1#
#60000
0!
0#
b0 &
#65000
1!
1#
#70000
0!
b1 "
0#
#75000
1!
1#
#80000
0!
b0 "
0#
b10000 &
#85000
1!
1#
#90000
0!
0#
b0 &
#95000
1!
1#
#100000
0!
b11 "
0#
#105000
1!
1#
#110000
0!
b0 "
0#
b10000000 &
#115000
1!
1#
#120000
0!
0#
b0 &
#125000
1!
1#
#130000
0!
0#
#135000
1!
1#
#140000
0!
0#
#145000
1!
1#
#150000
0!
0#
#155000
1!
1#
#160000
0!
0#
#165000
1!
1#
#170000
0!
0#
#175000
1!
1#
#180000
0!
0#
#185000
1!
1#
#190000
0!
0#
#195000
1!
1#
#200000
0!
0#
#205000
1!
1#
#210000
0!
0#
#215000
1!
1#
#220000
0!
0#
#225000
1!
1#
#230000
0!
0#
#235000
1!
1#
#240000
0!
0#
#245000
1!
1#
#250000
0!
0#
#255000
1!
1#
#260000
0!
0#
#265000
1!
1#
#270000
0!
0#
#275000
1!
1#
#280000
0!
0#
#285000
1!
1#
#290000
0!
0#
#295000
1!
1#
#300000
0!
0#
#305000
1!
1#
#310000
0!
0#
#315000
1!
1#
#320000
0!
0#
#325000
1!
1#
#330000
0!
0#
#335000
1!
1#
#340000
0!
0#
#345000
1!
1#
#350000
0!
0#
#355000
1!
1#
#360000
0!
0#
#365000
1!
1#
#370000
0!
0#
#375000
1!
1#
#380000
0!
0#
#385000
1!
1#
#390000
0!
0#
#395000
1!
1#
#400000
0!
0#
#405000
1!
1#
#410000
0!
0#
#415000
1!
1#
#420000
0!
0#
#425000
1!
1#
#430000
0!
0#
#435000
1!
1#
#440000
0!
0#
#445000
1!
1#
#450000
0!
0#
#455000
1!
1#
#460000
0!
0#
#465000
1!
1#
#470000
0!
0#
#475000
1!
1#
#480000
0!
0#
#485000
1!
1#
#490000
0!
0#
#495000
1!
1#
#500000
0!
0#
#505000
1!
1#
#510000
0!
0#
#515000
1!
1#
#520000
0!
0#
#525000
1!
1#
#530000
0!
0#
#535000
1!
1#
#540000
0!
0#
#545000
1!
1#
#550000
0!
0#
#555000
1!
1#
#560000
0!
0#
#565000
1!
1#
#570000
0!
0#
#575000
1!
1#
#580000
0!
0#
#585000
1!
1#
#590000
0!
0#
#595000
1!
1#
#600000
0!
0#
#605000
1!
1#
#610000
0!
0#
#615000
1!
1#
#620000
0!
0#
#625000
1!
1#
#630000
0!
0#
#635000
1!
1#
#640000
0!
0#
#645000
1!
1#
#650000
0!
0#
#655000
1!
1#
#660000
0!
0#
#665000
1!
1#
#670000
0!
0#
#675000
1!
1#
#680000
0!
0#
#685000
1!
1#
#690000
0!
0#
#695000
1!
1#
#700000
0!
0#
#705000
1!
1#
#710000
0!
0#
#715000
1!
1#
#720000
0!
0#
#725000
1!
1#
#730000
0!
0#
#735000
1!
1#
#740000
0!
0#
#745000
1!
1#
#750000
0!
0#
#755000
1!
1#
#760000
0!
0#
#765000
1!
1#
#770000
0!
0#
#775000
1!
1#
#780000
0!
0#
#785000
1!
1#
#790000
0!
0#
#795000
1!
1#
#800000
0!
0#
#805000
1!
1#
#810000
0!
0#
#815000
1!
1#
#820000
0!
0#
#825000
1!
1#
#830000
0!
0#
#835000
1!
1#
#840000
0!
0#
#845000
1!
1#
#850000
0!
0#
#855000
1!
1#
#860000
0!
0#
#865000
1!
1#
#870000
0!
0#
#875000
1!
1#
#880000
0!
0#
#885000
1!
1#
#890000
0!
0#
#895000
1!
1#
#900000
0!
0#
#905000
1!
1#
#910000
0!
0#
#915000
1!
1#
#920000
0!
0#
#925000
1!
1#
#930000
0!
0#
#935000
1!
1#
#940000
0!
0#
#945000
1!
1#
#950000
0!
0#
#955000
1!
1#
#960000
0!
0#
#965000
1!
1#
#970000
0!
0#
#975000
1!
1#
#980000
0!
0#
#985000
1!
1#
#990000
0!
0#
#995000
1!
1#
